Chapter 8 資料基本處裡 | R 資料科學與統計
…
comment = 設定注釋符號, 在注釋符號之後的文字不會被讀入

trim_ws = 去除變數值得空白

skip = 要跳過幾行 (row) 才開始讀入資料

n_max = 最大輸入行數

# .csv
library(tidyverse)
library(readr)
dd <- readr::read_csv("C:/RData/DMTKAInfMo.csv")
print(dd, n = 5, width = Inf)
## # A tibble: 78 x 16
##      No   age   sex    DM  DMyr preAC prePC postAC postPC medication
##   <dbl> <dbl> <dbl> <dbl> <dbl> <dbl> <dbl>  <dbl>  <dbl>      <dbl>
## 1     1    67     0     0    10   120   160    140    180          0
## 2     2    67     0     0    11   100   150    150    220          0
## 3     3    72     1     0     4   150   200    120    150          2
## 4     4    82     1     0     8   150   200    160    250          0
## 5     5    73     1     0     3    85   110    140    200          0
##    SIDE PREKS POSKS   ABS INFECT INFMO
##   <dbl> <dbl> <dbl> <dbl>  <dbl> <dbl>
## 1     0    56    92     1      0     0
## 2     1    62    62     0      1     2
## 3     0    60    94     1      0     0
## 4     1    47    90     1      0     0
## 5     0    44    88     0      0     0
## # ... with 73 more rows
# .xls
library(readxl)
dd <- readxl::read_excel("C:/RData/DMTKAInfMo.xls")
print(dd, n = 5, width = Inf)
## # A tibble: 78 x 16
##      No   age   sex    DM  DMyr preAC prePC postAC postPC medication
##   <dbl> <dbl> <dbl> <dbl> <dbl> <dbl> <dbl>  <dbl>  <dbl>      <dbl>
## 1     1    67     0     0    10   120   160    140    180          0
## 2     2    67     0     0    11   100   150    150    220          0
## 3     3    72     1     0     4   150   200    120    150          2
## 4     4    82     1     0     8   150   200    160    250          0
## 5     5    73     1     0     3    85   110    140    200          0
##    SIDE PREKS POSKS   ABS INFECT I0FECTMO
##   <dbl> <dbl> <dbl> <dbl>  <dbl>    <dbl>
## 1     0    56    92     1      0        0
## 2     1    62    62     0      1        2
## 3     0    60    94     1      0        0
## 4     1    47    90     1      0        0
## 5     0    44    88     0      0        0
## # ... with 73 more rows
…
